{
  "project_info": {
    "project_number": "483079695610",
    "firebase_url": "https://bqr-sss.firebaseio.com",
    "project_id": "bqr-sss",
    "storage_bucket": "bqr-sss.appspot.com"
  },
  "client": [
    {
      "client_info": {
        "mobilesdk_app_id": "1:483079695610:android:b77e38330546225bc02d43",
        "android_client_info": {
          "package_name": "com.bovquier.resume"
        }
      },
      "oauth_client": [
        {
          "client_id": "483079695610-470r0crg3is63bj3c8ocmglof38nju5r.apps.googleusercontent.com",
          "client_type": 3
        }
      ],
      "api_key": [
        {
          "current_key": "AIzaSyC0CY8i20XGnCtIXt4_0S35TyLuJcIzIhw"
        },
        {
          "current_key": "AIzaSyABebeccAY-tyC_0oO9XY46BvujwMp56hc"
        }
      ],
      "services": {
        "appinvite_service": {
          "other_platform_oauth_client": [
            {
              "client_id": "483079695610-470r0crg3is63bj3c8ocmglof38nju5r.apps.googleusercontent.com",
              "client_type": 3
            }
          ]
        }
      }
    },
    {
      "client_info": {
        "mobilesdk_app_id": "1:483079695610:android:e02bdaea28191373c02d43",
        "android_client_info": {
          "package_name": "com.bovquier.resume.qa"
        }
      },
      "oauth_client": [
        {
          "client_id": "483079695610-65s01vrpt53lbg7fhk674bitgqlcbbra.apps.googleusercontent.com",
          "client_type": 1,
          "android_info": {
            "package_name": "com.bovquier.resume.qa",
            "certificate_hash": "dde166451ca7bb2ba6a3f0f248da9df2e0fc3918"
          }
        },
        {
          "client_id": "483079695610-sarplif3g5783ofbgkldjn09k83vtkoe.apps.googleusercontent.com",
          "client_type": 1,
          "android_info": {
            "package_name": "com.bovquier.resume.qa",
            "certificate_hash": "af21efd5bbc2f1f4dfd69fb7f7460c829cb68e8c"
          }
        },
        {
          "client_id": "483079695610-470r0crg3is63bj3c8ocmglof38nju5r.apps.googleusercontent.com",
          "client_type": 3
        }
      ],
      "api_key": [
        {
          "current_key": "AIzaSyC0CY8i20XGnCtIXt4_0S35TyLuJcIzIhw"
        },
        {
          "current_key": "AIzaSyABebeccAY-tyC_0oO9XY46BvujwMp56hc"
        }
      ],
      "services": {
        "appinvite_service": {
          "other_platform_oauth_client": [
            {
              "client_id": "483079695610-470r0crg3is63bj3c8ocmglof38nju5r.apps.googleusercontent.com",
              "client_type": 3
            }
          ]
        }
      }
    },
    {
      "client_info": {
        "mobilesdk_app_id": "1:483079695610:android:0cea85616137ed7b",
        "android_client_info": {
          "package_name": "com.bovquier.smartsecretsanta"
        }
      },
      "oauth_client": [
        {
          "client_id": "483079695610-bigpi8japk3h4jq5nsvma3mt6lcuume0.apps.googleusercontent.com",
          "client_type": 1,
          "android_info": {
            "package_name": "com.bovquier.smartsecretsanta",
            "certificate_hash": "101c092bd1f30456e3c4a970fb7e7e942e5a0570"
          }
        },
        {
          "client_id": "483079695610-nhm87crtl56cb6m5plq9off77e20lcme.apps.googleusercontent.com",
          "client_type": 1,
          "android_info": {
            "package_name": "com.bovquier.smartsecretsanta",
            "certificate_hash": "52f6d0a61ccf3b8d74d14d0956ab56fdead74179"
          }
        },
        {
          "client_id": "483079695610-vhbika00lng7r2tbkagbjftea10o91qm.apps.googleusercontent.com",
          "client_type": 1,
          "android_info": {
            "package_name": "com.bovquier.smartsecretsanta",
            "certificate_hash": "3b83fb29c5351451d77980f2b82078e0661c6e15"
          }
        },
        {
          "client_id": "483079695610-470r0crg3is63bj3c8ocmglof38nju5r.apps.googleusercontent.com",
          "client_type": 3
        }
      ],
      "api_key": [
        {
          "current_key": "AIzaSyC0CY8i20XGnCtIXt4_0S35TyLuJcIzIhw"
        },
        {
          "current_key": "AIzaSyABebeccAY-tyC_0oO9XY46BvujwMp56hc"
        }
      ],
      "services": {
        "appinvite_service": {
          "other_platform_oauth_client": [
            {
              "client_id": "483079695610-470r0crg3is63bj3c8ocmglof38nju5r.apps.googleusercontent.com",
              "client_type": 3
            }
          ]
        }
      }
    },
    {
      "client_info": {
        "mobilesdk_app_id": "1:483079695610:android:a02b43071df5a2b7",
        "android_client_info": {
          "package_name": "com.bqr.ssecretsanta"
        }
      },
      "oauth_client": [
        {
          "client_id": "483079695610-0elqlstieis7feirh5370naf2d9o5k3b.apps.googleusercontent.com",
          "client_type": 1,
          "android_info": {
            "package_name": "com.bqr.ssecretsanta",
            "certificate_hash": "8cdf3928a6d4a761fe73437e7eabbe75768f2883"
          }
        },
        {
          "client_id": "483079695610-f7rmrp1b62tur66jemcu01q321ufe6ql.apps.googleusercontent.com",
          "client_type": 1,
          "android_info": {
            "package_name": "com.bqr.ssecretsanta",
            "certificate_hash": "3b83fb29c5351451d77980f2b82078e0661c6e15"
          }
        },
        {
          "client_id": "483079695610-470r0crg3is63bj3c8ocmglof38nju5r.apps.googleusercontent.com",
          "client_type": 3
        }
      ],
      "api_key": [
        {
          "current_key": "AIzaSyC0CY8i20XGnCtIXt4_0S35TyLuJcIzIhw"
        },
        {
          "current_key": "AIzaSyABebeccAY-tyC_0oO9XY46BvujwMp56hc"
        }
      ],
      "services": {
        "appinvite_service": {
          "other_platform_oauth_client": [
            {
              "client_id": "483079695610-470r0crg3is63bj3c8ocmglof38nju5r.apps.googleusercontent.com",
              "client_type": 3
            }
          ]
        }
      }
    }
  ],
  "configuration_version": "1"
}